%YAML 1.1
%TAG !u! tag:unity3d.com,2011:
--- !u!74 &7400000
AnimationClip:
  m_ObjectHideFlags: 0
  m_CorrespondingSourceObject: {fileID: 0}
  m_PrefabInstance: {fileID: 0}
  m_PrefabAsset: {fileID: 0}
  m_Name: Player_walk
  serializedVersion: 7
  m_Legacy: 0
  m_Compressed: 0
  m_UseHighQualityCurve: 1
  m_RotationCurves: []
  m_CompressedRotationCurves: []
  m_EulerCurves: []
  m_PositionCurves: []
  m_ScaleCurves: []
  m_FloatCurves: []
  m_PPtrCurves:
  - serializedVersion: 2
    curve:
    - time: 0
      value: {fileID: 21300000, guid: ba328a1d44341d54a9c7bffb1b72bb36, type: 3}
    - time: 0.06666667
      value: {fileID: 21300000, guid: ba328a1d44341d54a9c7bffb1b72bb36, type: 3}
    - time: 0.18333334
      value: {fileID: 21300000, guid: 293305d49b5f5104cb615ae2f7c7ee5c, type: 3}
    - time: 0.23333333
      value: {fileID: 21300000, guid: 5a047dd62e92dc1448893385a63a839c, type: 3}
    - time: 0.3
      value: {fileID: 21300000, guid: e21877f7ae4f6684d83b65e2a2c1af17, type: 3}
    - time: 0.35
      value: {fileID: 21300000, guid: 8f0e59387923bf64f80f3c2dff521de4, type: 3}
    - time: 0.41666666
      value: {fileID: 21300000, guid: 4a0868b5281140a4988b58aa193b26a7, type: 3}
    attribute: m_Sprite
    path: 
    classID: 212
    script: {fileID: 0}
    flags: 2
  m_SampleRate: 60
  m_WrapMode: 0
  m_Bounds:
    m_Center: {x: 0, y: 0, z: 0}
    m_Extent: {x: 0, y: 0, z: 0}
  m_ClipBindingConstant:
    genericBindings:
    - serializedVersion: 2
      path: 0
      attribute: 0
      script: {fileID: 0}
      typeID: 212
      customType: 23
      isPPtrCurve: 1
      isIntCurve: 0
      isSerializeReferenceCurve: 0
    pptrCurveMapping:
    - {fileID: 21300000, guid: ba328a1d44341d54a9c7bffb1b72bb36, type: 3}
    - {fileID: 21300000, guid: ba328a1d44341d54a9c7bffb1b72bb36, type: 3}
    - {fileID: 21300000, guid: 293305d49b5f5104cb615ae2f7c7ee5c, type: 3}
    - {fileID: 21300000, guid: 5a047dd62e92dc1448893385a63a839c, type: 3}
    - {fileID: 21300000, guid: e21877f7ae4f6684d83b65e2a2c1af17, type: 3}
    - {fileID: 21300000, guid: 8f0e59387923bf64f80f3c2dff521de4, type: 3}
    - {fileID: 21300000, guid: 4a0868b5281140a4988b58aa193b26a7, type: 3}
  m_AnimationClipSettings:
    serializedVersion: 2
    m_AdditiveReferencePoseClip: {fileID: 0}
    m_AdditiveReferencePoseTime: 0
    m_StartTime: 0
    m_StopTime: 0.43333334
    m_OrientationOffsetY: 0
    m_Level: 0
    m_CycleOffset: 0
    m_HasAdditiveReferencePose: 0
    m_LoopTime: 1
    m_LoopBlend: 0
    m_LoopBlendOrientation: 0
    m_LoopBlendPositionY: 0
    m_LoopBlendPositionXZ: 0
    m_KeepOriginalOrientation: 0
    m_KeepOriginalPositionY: 1
    m_KeepOriginalPositionXZ: 0
    m_HeightFromFeet: 0
    m_Mirror: 0
  m_EditorCurves: []
  m_EulerEditorCurves: []
  m_HasGenericRootTransform: 0
  m_HasMotionFloatCurves: 0
  m_Events: []
